MyLabJournal - 02 Supervised ML
…
...
and 34 more lines.

bike_fit %>% 
  pull_workflow_fit() %>% 
  tidy()

Warning: `pull_workflow_fit()` was deprecated in workflows 0.2.3.
ℹ Please use `extract_fit_parsnip()` instead.

# A tibble: 75 × 5
   term              estimate   std.error   statistic p.value
   <chr>                <dbl>       <dbl>       <dbl>   <dbl>
 1 (Intercept)       15.6     15288.       0.00102     0.999 
 2 id                 0.156       0.113    1.38        0.169 
 3 weight            -3.33        1.95    -1.71        0.0867
 4 price              0.00109     0.00126  0.872       0.383 
 5 shimano_dura_ace  35.5     76703.       0.000462    1.00  
 6 shimano_ultegra   19.3     75469.       0.000256    1.00  
 7 shimano_105       20.2     75469.       0.000267    1.00  
 8 shimano_tiagra     0.534   82247.       0.00000650  1.00  
 9 shimano_deore      2.41    28232.       0.0000855   1.00  
10 shimano_slx      -36.9     48845.      -0.000756    0.999 
# ℹ 65 more rows
…
bike_pred

# A tibble: 47 × 4
   .pred_aluminium .pred_carbon frame_material category_2
             <dbl>        <dbl> <fct>          <chr>     
 1        1.00e+ 0     4.95e-11 aluminium      Endurance 
 2        1.00e+ 0     2.30e-10 aluminium      Endurance 
 3        1.99e-11     1.00e+ 0 carbon         Endurance 
 4        3.69e- 3     9.96e- 1 carbon         Endurance 
 5        1.00e+ 0     8.87e- 8 carbon         Endurance 
 6        1.99e- 1     8.01e- 1 carbon         Endurance 
 7        1.73e- 1     8.27e- 1 carbon         Endurance 
 8        3.51e- 1     6.49e- 1 carbon         Endurance 
 9        2.79e- 9     1.00e+ 0 carbon         Cyclocross
10        6.40e- 1     3.60e- 1 carbon         Cyclocross
# ℹ 37 more rows
…
